{
    "video": "Bokeh - 4413.mp4",
    "svg": "overlay.svg",
    "styles": {
        "text_h1_style": {
            "font-style": "normal",
            "font-variant": "normal",
            "font-weight": "bold",
            "font-size": "38.0px",
            "font-family": "'PT Sans'"
        },
        "time_style": {
            "font-style": "normal",
            "font-variant": "normal",
            "font-weight": "bold",
            "font-size": "38.0px",
            "font-family": "'PT Sans'"
        },
        "text_standard_style": {
            "font-style": "normal",
            "font-variant": "normal",
            "font-weight": "normal",
            "font-size": "38.0px",
            "font-family": "'PT Sans'"
        }
    }
}
