<?xml version="1.0" encoding="UTF-8" standalone="no"?>
<svg
   xmlns:dc="http://purl.org/dc/elements/1.1/"
   xmlns:cc="http://creativecommons.org/ns#"
   xmlns:rdf="http://www.w3.org/1999/02/22-rdf-syntax-ns#"
   xmlns:svg="http://www.w3.org/2000/svg"
   xmlns="http://www.w3.org/2000/svg"
   xmlns:sodipodi="http://sodipodi.sourceforge.net/DTD/sodipodi-0.dtd"
   xmlns:inkscape="http://www.inkscape.org/namespaces/inkscape"
   id="svg1535"
   version="1.1"
   viewBox="0 0 507.99999 285.75001"
   height="1080"
   width="1920"
   sodipodi:docname="overlay.svg"
   inkscape:version="0.92.1 r15371">
  <sodipodi:namedview
     pagecolor="#ffffff"
     bordercolor="#666666"
     borderopacity="1"
     objecttolerance="10"
     gridtolerance="10"
     guidetolerance="10"
     inkscape:pageopacity="0"
     inkscape:pageshadow="2"
     inkscape:window-width="1366"
     inkscape:window-height="704"
     id="namedview4524"
     showgrid="false"
     inkscape:zoom="0.39791667"
     inkscape:cx="962.51309"
     inkscape:cy="540"
     inkscape:window-x="0"
     inkscape:window-y="27"
     inkscape:window-maximized="1"
     inkscape:current-layer="svg1535" />
  <defs
     id="defs1529" />
  <metadata
     id="metadata1532">
    <rdf:RDF>
      <cc:Work
         rdf:about="">
        <dc:format>image/svg+xml</dc:format>
        <dc:type
           rdf:resource="http://purl.org/dc/dcmitype/StillImage" />
        <dc:title />
      </cc:Work>
    </rdf:RDF>
  </metadata>
  <rect
     style="opacity:0.8;vector-effect:none;fill:#ffffff;fill-opacity:0.94827588;fill-rule:nonzero;stroke:none;stroke-width:0.29243219;stroke-linecap:butt;stroke-linejoin:miter;stroke-miterlimit:4;stroke-dasharray:0.8772966, 0.29243219999999998;stroke-dashoffset:0;stroke-opacity:1;paint-order:normal;"
     id="rect5305"
     width="296.33334"
     height="285.75"
     x="211.66667"
     y="-1.661377e-07"
     rx="0"
     ry="0" />
  <flowRoot
     xml:space="preserve"
     id="flowRootSchedule0"
     style="font-style:normal;font-weight:normal;font-size:26.66666603px;line-height:1.25;font-family:sans-serif;letter-spacing:0px;word-spacing:0px;fill:#000000;fill-opacity:1;stroke:none"
     transform="matrix(0.26458333,0,0,0.26458333,-17.5381,-14.589889)"><flowRegion
       id="flowRegion5309"><rect
         id="rect5311"
         width="1028.5715"
         height="1088.5714"
         x="917.14288"
         y="125.71429" /></flowRegion><flowPara
       style="font-style:normal;font-variant:normal;font-weight:bold;font-stretch:normal;font-size:47.51466751px;font-family:'IBM Plex Sans';-inkscape-font-specification:'IBM Plex Sans, Light';font-variant-ligatures:normal;font-variant-caps:normal;font-variant-numeric:normal;font-feature-settings:normal;text-align:start;writing-mode:lr-tb;text-anchor:start"
       id="flowPara252">Onsdag XX månad kl 19:00</flowPara><flowPara
       style="font-style:normal;font-variant:normal;font-weight:300;font-stretch:normal;font-size:47.51466751px;font-family:'IBM Plex Sans';-inkscape-font-specification:'IBM Plex Sans, Light';font-variant-ligatures:normal;font-variant-caps:normal;font-variant-numeric:normal;font-feature-settings:normal;text-align:start;writing-mode:lr-tb;text-anchor:start"
       id="flowPara745">“Hämta nu styrka hos Herren” - Bibel och bön</flowPara><flowPara
       style="font-style:normal;font-variant:normal;font-weight:300;font-stretch:normal;font-size:47.51466751px;font-family:'IBM Plex Sans';-inkscape-font-specification:'IBM Plex Sans, Light';font-variant-ligatures:normal;font-variant-caps:normal;font-variant-numeric:normal;font-feature-settings:normal;text-align:start;writing-mode:lr-tb;text-anchor:start"
       id="flowPara747" /><flowPara
       style="font-style:normal;font-variant:normal;font-weight:300;font-stretch:normal;font-size:47.51466751px;font-family:'IBM Plex Sans';-inkscape-font-specification:'IBM Plex Sans, Light';font-variant-ligatures:normal;font-variant-caps:normal;font-variant-numeric:normal;font-feature-settings:normal;text-align:start;writing-mode:lr-tb;text-anchor:start"
       id="flowPara749" /><flowPara
       style="font-style:normal;font-variant:normal;font-weight:bold;font-stretch:normal;font-size:47.51466751px;font-family:'IBM Plex Sans';-inkscape-font-specification:'IBM Plex Sans, Light';font-variant-ligatures:normal;font-variant-caps:normal;font-variant-numeric:normal;font-feature-settings:normal;text-align:start;writing-mode:lr-tb;text-anchor:start"
       id="flowPara751">Söndag XX månad kl 11:00</flowPara><flowPara
       style="font-style:normal;font-variant:normal;font-weight:300;font-stretch:normal;font-size:47.51466751px;font-family:'IBM Plex Sans';-inkscape-font-specification:'IBM Plex Sans, Light';font-variant-ligatures:normal;font-variant-caps:normal;font-variant-numeric:normal;font-feature-settings:normal;text-align:start;writing-mode:lr-tb;text-anchor:start"
       id="flowPara753">Gudstjänst</flowPara></flowRoot>  <text
     xml:space="preserve"
     style="font-style:normal;font-weight:normal;font-size:7.05555534px;line-height:1.25;font-family:sans-serif;letter-spacing:0px;word-spacing:0px;fill:#ffffff;fill-opacity:1;stroke:none;stroke-width:0.26458332;"
     x="110.84014"
     y="135.9046"
     id="textWeekAndYear"><tspan
       x="110.84014"
       y="135.9046"
       style="font-style:normal;font-variant:normal;font-weight:normal;font-stretch:normal;font-size:26.45833397px;font-family:'IBM Plex Sans Condensed';-inkscape-font-specification:'IBM Plex Sans Condensed, ';text-align:center;text-anchor:middle;fill:#ffffff;stroke-width:0.26458332;"
       id="tspanWeek">Vecka 48</tspan><tspan
       x="110.84014"
       y="168.97752"
       style="font-style:normal;font-variant:normal;font-weight:normal;font-stretch:normal;font-size:26.45833397px;font-family:'IBM Plex Sans Condensed';-inkscape-font-specification:'IBM Plex Sans Condensed, ';text-align:center;text-anchor:middle;fill:#ffffff;stroke-width:0.26458332;"
       id="tspanYear">2018</tspan></text>
  <g
     transform="matrix(0.33043855,0,0,0.33043855,21.146012,9.685284)"
     id="g1702"
     style="fill:#ffffff">
    <path
       style="fill:#ffffff"
       class="st0"
       d="m 66.3,86.8 h -4.7 l 5.5,-29 C 67.4,56.1 67.7,54.4 68,52.7 68.3,51 68.5,49.4 68.7,48 H 73 l -0.7,5.2 h 0.1 c 1.2,-1.8 2.7,-3.3 4.4,-4.3 1.7,-1 3.5,-1.5 5.5,-1.5 2,0 3.6,0.5 4.8,1.5 1.2,0.9 2.2,2.2 2.7,3.7 0.6,1.5 0.9,3.1 0.9,4.8 0,3.3 -0.7,6.4 -2.1,9.2 -1.4,2.8 -3.3,5.1 -5.7,6.9 -2.4,1.8 -5.2,2.7 -8.2,2.7 -1.4,0 -2.7,-0.1 -3.6,-0.4 -1,-0.2 -1.7,-0.5 -2.3,-0.9 H 68.7 Z M 70.7,63.3 69.3,71 c 1.3,1 3,1.5 5.3,1.5 2.1,0 3.9,-0.8 5.6,-2.2 1.7,-1.4 3,-3.3 4,-5.5 1,-2.2 1.5,-4.6 1.5,-7 0,-1 -0.1,-2 -0.5,-2.9 -0.3,-1 -0.9,-1.8 -1.6,-2.4 -0.8,-0.6 -1.8,-1 -3.2,-1 -1.3,0 -2.5,0.5 -3.8,1.4 -1.3,0.9 -2.5,2.3 -3.5,4 -1.1,1.6 -1.9,3.8 -2.4,6.4 z"
       id="path1662" />
    <path
       style="fill:#ffffff"
       class="st0"
       d="M 98.7,75.6 H 94 l 5.2,-27.5 h 4.7 z M 102.8,43 v 0 c -0.9,0 -1.6,-0.3 -2.1,-0.9 -0.5,-0.6 -0.8,-1.3 -0.8,-2.2 0,-1 0.4,-1.8 1,-2.4 0.6,-0.6 1.4,-1 2.3,-1 0.9,0 1.6,0.3 2.1,0.9 0.5,0.6 0.8,1.3 0.8,2.2 0,1 -0.4,1.8 -1,2.4 -0.5,0.7 -1.3,1 -2.3,1 z"
       id="path1664" />
    <path
       style="fill:#ffffff"
       class="st0"
       d="M 111.7,75.6 H 107 l 3.6,-19.5 c 0.6,-3.1 1,-5.7 1.3,-8 h 4.3 l -0.7,5.4 h 0.1 c 1.3,-1.9 2.8,-3.4 4.5,-4.5 1.8,-1 3.7,-1.6 5.7,-1.6 1.1,0 2.2,0.2 3.2,0.7 1.1,0.5 1.9,1.3 2.6,2.4 0.7,1.1 1.1,2.6 1.1,4.5 0,0.6 -0.1,1.4 -0.1,2.2 -0.1,0.8 -0.2,1.6 -0.4,2.3 l -3.1,16.1 h -4.7 l 3,-15.9 c 0.2,-1.1 0.3,-2.3 0.3,-3.5 0,-1.4 -0.3,-2.5 -0.9,-3.4 -0.7,-0.9 -1.8,-1.3 -3.4,-1.4 -1.1,0 -2.4,0.4 -3.6,1.3 -1.3,0.9 -2.4,2.1 -3.5,3.7 -1,1.6 -1.8,3.6 -2.2,5.8 z"
       id="path1666" />
    <path
       style="fill:#ffffff"
       class="st0"
       d="m 136.3,85.5 1.3,-3.7 c 0.8,0.5 1.9,1 3.2,1.3 1.3,0.3 2.6,0.5 4.1,0.5 2.4,0.1 4.4,-0.6 6.1,-2.1 1.7,-1.5 3,-4 3.8,-7.7 l 0.9,-4.2 h -0.1 c -1.2,2 -2.7,3.4 -4.3,4.4 -1.6,1 -3.4,1.5 -5.3,1.5 -1.9,0 -3.4,-0.5 -4.7,-1.4 -1.2,-0.9 -2.2,-2.1 -2.8,-3.5 -0.6,-1.4 -0.9,-3 -0.9,-4.7 0,-3.2 0.7,-6.2 2.2,-9 1.4,-2.8 3.4,-5.1 6,-6.9 2.6,-1.8 5.7,-2.7 9.3,-2.7 1.6,0 3.2,0.2 4.8,0.6 1.6,0.4 2.9,0.8 4.1,1.4 L 159.7,72 c -0.5,2.9 -1.2,5.4 -2.1,7.4 -0.9,2 -2,3.7 -3.4,4.9 -1.4,1.1 -3,1.9 -4.7,2.4 -1.7,0.4 -3.3,0.7 -4.9,0.6 -1.7,0 -3.3,-0.2 -4.7,-0.5 -1.6,-0.2 -2.7,-0.7 -3.6,-1.3 z m 20.7,-24.2 1.8,-9.2 c -0.5,-0.2 -1.1,-0.5 -1.9,-0.7 -0.8,-0.2 -1.7,-0.3 -2.7,-0.3 -2.3,0 -4.3,0.8 -6.1,2.1 -1.7,1.4 -3.1,3.1 -4.1,5.2 -1,2.1 -1.5,4.4 -1.5,6.7 0,1 0.1,2.1 0.4,3.1 0.3,1 0.8,1.8 1.6,2.5 0.8,0.7 1.9,1 3.3,1 1.4,0 2.7,-0.5 3.9,-1.5 1.3,-1 2.4,-2.3 3.3,-3.9 1,-1.4 1.6,-3.2 2,-5 z"
       id="path1668" />
    <path
       style="fill:#ffffff"
       class="st0"
       d="m 166,74.3 1.4,-3.5 c 0.7,0.4 1.5,0.8 2.6,1.2 1.1,0.3 2.2,0.5 3.3,0.6 1.6,0 2.9,-0.5 3.8,-1.3 0.9,-0.9 1.4,-1.9 1.4,-3.2 0,-1.1 -0.3,-2 -0.8,-2.8 -0.6,-0.8 -1.6,-1.6 -3,-2.3 -3.2,-1.8 -4.9,-4.1 -4.9,-7 0.1,-2.5 1,-4.5 2.8,-6.1 1.8,-1.6 4.2,-2.4 7.2,-2.5 1.2,0 2.4,0.2 3.4,0.4 1,0.3 1.8,0.6 2.3,0.9 l -1.3,3.6 c -0.5,-0.3 -1.1,-0.6 -2,-0.8 -0.8,-0.3 -1.7,-0.4 -2.8,-0.4 -1.5,0 -2.7,0.4 -3.6,1.2 -0.9,0.8 -1.4,1.8 -1.4,3 0,1 0.3,1.8 1,2.5 0.6,0.7 1.6,1.4 2.8,2.1 1.6,0.9 2.8,1.9 3.7,3.1 0.9,1.2 1.4,2.6 1.4,4.2 -0.1,2.9 -1.1,5.1 -3.1,6.7 -2,1.5 -4.5,2.3 -7.5,2.3 -1.5,0 -2.9,-0.2 -4.1,-0.6 -1,-0.3 -1.9,-0.8 -2.6,-1.3 z"
       id="path1670" />
    <path
       style="fill:#ffffff"
       class="st0"
       d="m 195.5,43 4.9,-1.5 -1.3,6.6 h 6.6 l -0.7,3.7 h -6.6 L 196,65.2 c -0.4,1.5 -0.5,3 -0.6,4.4 0,1.7 0.8,2.6 2.6,2.7 0.9,0 1.6,-0.1 2.2,-0.2 l -0.2,3.7 c -0.4,0.2 -1,0.3 -1.6,0.4 -0.6,0.1 -1.3,0.1 -2,0.1 -2.1,0 -3.5,-0.6 -4.5,-1.6 -0.9,-1 -1.4,-2.3 -1.3,-3.7 0,-1.5 0.2,-3.3 0.6,-5.2 l 2.7,-13.9 H 190 l 0.7,-3.7 h 3.9 z"
       id="path1672" />
    <path
       style="fill:#ffffff"
       class="st1"
       d="M 13.5,90.7 C 12.9,92 11.1,91.3 11.5,89.9 14.3,80.7 11.5,72.4 8,64.6 6.2,60.6 4.2,56.9 2.7,53.2 1.1,49.5 0,45.9 0,42.4 0,27.8 16.7,23.9 25.8,33 c 0.1,0.1 0.3,0.6 0.3,0.6 0.4,2.9 0.6,5.8 0.7,8.7 H 11.3 c -0.4,0 -0.7,0.3 -0.7,0.7 v 4.2 c 0,0.4 0.3,0.7 0.7,0.7 h 15.4 c -0.5,11 -3.9,23.5 -13.2,42.8 z"
       id="path1674" />
    <path
       style="fill:#ffffff"
       class="st2"
       d="m 32.7,50.5 c 0.1,-0.9 0.1,-1.7 0.2,-2.6 H 48 c -1,7 -5,15.6 -14.5,27.6 -0.1,0.1 -0.7,0.4 -0.8,0.4 h -4.8 c -0.9,0 -1.3,-0.6 -1,-1.5 3.7,-10.1 5.3,-17.7 5.8,-23.9 z"
       id="path1676" />
    <path
       style="fill:#ffffff"
       class="st2"
       d="M 32.8,42.3 C 32.7,39.7 32.4,37.3 32.1,35 31,25.7 30,17.3 38.3,0.8 c 0.7,-1.3 2.4,-0.7 2,0.7 -1.9,7.9 -1.2,13.8 0.3,18.9 1.5,5.2 4,9.5 5.7,14.1 0.9,2.5 1.6,5 1.8,7.8 z"
       id="path1678" />
    <path
       style="fill:#ffffff"
       class="st0"
       d="m 219.8,73.4 c 1.6,1.4 5.4,2.6 9.3,2.7 8.7,0 13.9,-5.3 13.9,-11.9 0,-4.7 -2.6,-7.8 -7.3,-10.3 -4.1,-2.2 -6,-4 -6,-7.1 0,-3.1 2.9,-6.3 7.7,-6.3 3,-0.1 5.4,1.1 6.6,1.8 l 1.7,-3.9 c -1.3,-0.9 -4.1,-1.9 -7.9,-1.9 -7.1,0 -13,4.4 -13,11.3 0,4.2 2.7,7.3 7.7,9.9 4.1,2.2 5.7,4.3 5.7,7.2 0,4.6 -4,7.2 -8.3,7.2 -3.2,0 -6.1,-1 -8.2,-2.5 z"
       id="path1680" />
    <path
       style="fill:#ffffff"
       class="st0"
       d="m 257.6,76.2 c 9.3,0 15.3,-8.9 15.3,-17.4 0,-5.8 -3.4,-11.5 -10.9,-11.5 -9,0 -15.3,8.4 -15.3,17.5 0,6.2 3.9,11.4 10.9,11.4 z m 0.5,-3.8 c -3.9,0 -6.5,-3.3 -6.5,-7.8 0,-6.3 3.9,-13.6 9.9,-13.6 5,0 6.5,4.5 6.5,7.7 0,6.5 -4.3,13.7 -9.9,13.7 z M 258.4,43 c 1.7,0 2.9,-1.4 2.9,-3 0,-1.5 -1,-2.8 -2.7,-2.8 -1.7,0 -3,1.3 -3,3 0.1,1.6 1.2,2.8 2.8,2.8 z m 10.4,0 c 1.8,0 3,-1.4 3,-3 0,-1.5 -1,-2.8 -2.7,-2.8 -1.7,0 -3,1.3 -3,3 0,1.6 1.1,2.8 2.7,2.8 z"
       id="path1682" />
    <path
       style="fill:#ffffff"
       class="st0"
       d="M 300.5,35 298,48.3 c -1.2,-0.6 -3.1,-1 -4.9,-1 -9.8,0 -17.1,9 -17.1,18.8 0,5.7 2.9,10.1 8.2,10.1 4,0 7.5,-2.2 10,-6.1 h 0.1 l -0.7,5.5 h 4.3 c 0.2,-2.7 0.6,-5.9 1.1,-8.8 L 305.1,35 Z m -5.1,26.9 c -1.2,6.2 -5.6,10.4 -9.3,10.4 -4.1,0 -5.2,-3.5 -5.2,-6.8 0,-7.4 5.1,-14.4 11.8,-14.4 2,0 3.6,0.5 4.5,1.2 z"
       id="path1684" />
    <path
       style="fill:#ffffff"
       class="st0"
       d="m 324.4,70.4 c -1.7,0.9 -4.2,1.9 -7.4,1.9 -2.9,0 -5.1,-1.2 -6.2,-3.7 -0.6,-1.4 -0.8,-4 -0.6,-5.2 10.2,0.2 18.4,-1.7 18.4,-9 0,-4 -2.9,-7.1 -8.1,-7.1 -8.9,0 -15.1,9.4 -15.1,17.8 0,6.1 3.2,11.1 10.5,11.1 3.7,0 7.1,-1 9.1,-2.2 z m -0.3,-15.9 c 0,4.3 -5.8,5.3 -13.2,5.2 1.1,-4.3 4.5,-8.7 9,-8.7 2.5,0 4.2,1.3 4.2,3.5 z"
       id="path1686" />
    <path
       style="fill:#ffffff"
       class="st0"
       d="m 335.2,75.6 2.3,-12.2 c 1.2,-6.4 4.9,-11.4 8.9,-11.4 0.6,0 1,0.1 1.3,0.1 l 0.9,-4.7 c -0.4,-0.1 -0.9,-0.1 -1.4,-0.1 -3.7,0 -6.6,2.9 -8.5,6.6 h -0.2 c 0.3,-2.1 0.6,-4.1 0.8,-6 h -4.2 c -0.3,2.6 -0.7,6.2 -1.4,9.8 l -3.4,17.8 h 4.9 z"
       id="path1688" />
    <path
       style="fill:#ffffff"
       class="st0"
       d="m 352.3,75.6 2,-10.5 3.5,-3.1 6.7,13.6 h 5.2 L 361.5,59.4 373.6,48 h -5.9 l -9.7,9.8 c -0.7,0.8 -1.8,1.8 -2.6,2.8 h -0.1 L 360,35 h -4.7 l -7.7,40.5 h 4.7 z"
       id="path1690" />
    <path
       style="fill:#ffffff"
       class="st0"
       d="m 383.6,76.2 c 9.3,0 15.3,-8.9 15.3,-17.4 0,-5.8 -3.4,-11.5 -10.9,-11.5 -9,0 -15.3,8.4 -15.3,17.5 0,6.2 3.9,11.4 10.9,11.4 z m 0.5,-3.8 c -3.9,0 -6.5,-3.3 -6.5,-7.8 0,-6.3 3.9,-13.6 9.9,-13.6 5,0 6.5,4.5 6.5,7.7 -0.1,6.5 -4.3,13.7 -9.9,13.7 z M 384.4,43 c 1.7,0 2.9,-1.4 2.9,-3 0,-1.5 -1,-2.8 -2.7,-2.8 -1.7,0 -3,1.3 -3,3 0.1,1.6 1.2,2.8 2.8,2.8 z m 10.4,0 c 1.8,0 3,-1.4 3,-3 0,-1.5 -1,-2.8 -2.7,-2.8 -1.7,0 -3,1.3 -3,3 0,1.6 1.1,2.8 2.7,2.8 z"
       id="path1692" />
    <path
       style="fill:#ffffff"
       class="st0"
       d="M 404,86.9 406.2,75 h 0.1 c 1.1,0.6 3,1.3 5.9,1.3 9.2,0 16.2,-9.1 16.2,-18.9 0,-5.1 -2.5,-10 -8.5,-10 -3.8,0 -7.5,2.2 -9.9,5.8 h -0.1 l 0.7,-5.2 h -4.3 c -0.3,2.8 -0.9,6.6 -1.5,9.9 L 399.3,87 h 4.7 z m 4.5,-23.7 c 1.4,-7.8 6.1,-12 9.8,-12 4.1,0 5.3,3.5 5.3,6.4 0,7.3 -5.1,14.8 -11.2,14.8 -2.3,0 -4.1,-0.6 -5.3,-1.5 z"
       id="path1694" />
    <path
       style="fill:#ffffff"
       class="st0"
       d="M 435.9,75.6 441.2,48 h -4.7 l -5.3,27.6 z m 4.2,-32.4 c 1.8,0 3.1,-1.3 3.2,-3.2 0,-1.7 -1.1,-3 -2.8,-3 -1.7,0 -3.1,1.4 -3.1,3.2 0,1.8 1,3 2.7,3 z"
       id="path1696" />
    <path
       style="fill:#ffffff"
       class="st0"
       d="m 448.3,75.6 2.5,-13.4 c 1.3,-6.9 6.1,-10.9 9.4,-10.9 3.3,0 4.3,2.1 4.3,4.8 0,1.2 -0.2,2.5 -0.3,3.5 l -3,16 h 4.7 L 469,59.4 c 0.3,-1.5 0.5,-3.2 0.5,-4.5 0,-5.8 -3.7,-7.7 -7,-7.7 -4.1,0 -7.8,2.2 -10.3,6.1 h -0.1 l 0.7,-5.4 h -4.3 c -0.3,2.3 -0.7,5 -1.3,8.1 l -3.7,19.6 z"
       id="path1698" />
    <path
       style="fill:#ffffff"
       class="st0"
       d="m 472.2,85.5 c 1.7,1.1 4.9,1.9 8.3,1.9 3.1,0 6.9,-0.7 9.7,-3 2.9,-2.5 4.5,-6.5 5.5,-12.4 L 500,49.2 c -2.2,-1 -5.7,-1.9 -8.9,-1.9 -10.7,0 -17.5,9.3 -17.5,18.7 0,4.9 2.9,9.6 8.5,9.6 3.8,0 7.1,-1.9 9.6,-5.9 h 0.1 l -0.9,4.2 c -1.6,7.5 -5.3,9.8 -9.9,9.8 -2.9,0 -5.7,-0.7 -7.3,-1.8 z M 493,61.2 c -1,5.4 -5.1,10.6 -9.2,10.6 -4.2,0 -5.4,-3.5 -5.3,-6.6 0,-6.9 4.8,-14.1 11.7,-14.1 1.9,0 3.7,0.5 4.6,1 z"
       id="path1700" />
  </g>
  <style
     type="text/css"
     id="style5428">
	.st0{fill:#1D1D1B;}
	.st1{fill:#AE0E16;}
	.st2{fill:#F18700;}
</style>
  <style
     id="style1660"
     type="text/css">
	.st0{fill:#1D1D1B;}
	.st1{fill:#AE0E16;}
	.st2{fill:#F18700;}
</style>
</svg>
