{
    "svg": "new_year_1.svg",
    "styles": {
        "text_h1_style": {
            "font-style": "normal",
            "font-variant": "normal",
            "font-weight": "bold",
            "font-size": "42.7px",
            "font-family": "'IBM Plex Sans'"
        },
        "time_style": {
            "font-style": "normal",
            "font-variant": "normal",
            "font-weight": "bold",
            "font-size": "42.7px",
            "font-family": "'IBM Plex Sans'"
        },
        "text_standard_style": {
            "font-style": "normal",
            "font-variant": "normal",
            "font-weight": "300",
            "font-size": "42.7px",
            "font-family": "'IBM Plex Sans'"
        }
    }
}
